{
  "global": {
    "server": "https://api-ppi.remydamblemont.fr/api",
    "images": "https://api-ppi.remydamblemont.fr/images",
    "keyJwt": "dmj4VcvGDKALxjQvt4DeYUzydwbVwTHLb5Xh",
    "androidClientId": "234648289359-58jevp3k4kof5253502u7fsrlkre7q95.apps.googleusercontent.com",
    "facebookClientId": "1269222049954554",
    "androidStandaloneAppClientId": "234648289359-6hkfmlh5q90ekqm85uohkokio5t49ns6.apps.googleusercontent.com"
  }
}